<svg width="617" height="127" viewBox="74 0 [width] [height]" fill="none" xmlns="http://www.w3.org/2000/svg">
<g filter="url(#filter0_d)">
<ellipse rx="188.179" ry="128.553" transform="matrix(0.993477 0.114031 -0.945515 0.325578 308.5 63.4345)" stroke="url(#paint0_linear)" stroke-width="2"/>
</g>
<ellipse rx="208.813" ry="78.3447" transform="matrix(0.998584 0.0531941 -0.803093 0.595853 308.501 63.4345)" stroke="url(#paint1_linear)"/>
<ellipse cx="308.217" cy="63.4344" rx="215.695" ry="48.2542" stroke="url(#paint2_linear)"/>
<ellipse rx="208.813" ry="78.3447" transform="matrix(0.998584 -0.0531941 0.803093 0.595853 308.5 63.4345)" stroke="url(#paint3_linear)"/>
<defs>
<filter id="filter0_d" x="71.1128" y="3.04553" width="474.775" height="120.778" filterUnits="userSpaceOnUse" color-interpolation-filters="sRGB">
<feFlood flood-opacity="0" result="BackgroundImageFix"/>
<feColorMatrix in="SourceAlpha" type="matrix" values="0 0 0 0 0 0 0 0 0 0 0 0 0 0 0 0 0 0 127 0"/>
<feOffset/>
<feGaussianBlur stdDeviation="6.5"/>
<feColorMatrix type="matrix" values="0 0 0 0 0.239216 0 0 0 0 0.494118 0 0 0 0 0.956863 0 0 0 1 0"/>
<feBlend mode="normal" in2="BackgroundImageFix" result="effect1_dropShadow"/>
<feBlend mode="normal" in="SourceGraphic" in2="effect1_dropShadow" result="shape"/>
</filter>
<linearGradient id="paint0_linear" x1="360.806" y1="-35.5296" x2="299.574" y2="323.837" gradientUnits="userSpaceOnUse">
<stop stop-color="#3798F1"/>
<stop offset="1" stop-color="#406FF5"/>
</linearGradient>
<linearGradient id="paint1_linear" x1="400.369" y1="-21.6531" x2="379.462" y2="201.76" gradientUnits="userSpaceOnUse">
<stop stop-color="#3798F1"/>
<stop offset="1" stop-color="#406FF5"/>
</linearGradient>
<linearGradient id="paint2_linear" x1="506.085" y1="1.84372" x2="498.364" y2="140.223" gradientUnits="userSpaceOnUse">
<stop stop-color="#3798F1"/>
<stop offset="1" stop-color="#406FF5"/>
</linearGradient>
<linearGradient id="paint3_linear" x1="400.369" y1="-21.6531" x2="379.462" y2="201.76" gradientUnits="userSpaceOnUse">
<stop stop-color="#3798F1"/>
<stop offset="1" stop-color="#406FF5"/>
</linearGradient>
</defs>
</svg>
