<svg width="82" height="35" viewBox="0 0 82 35" fill="none" xmlns="http://www.w3.org/2000/svg">
<rect x="22.8521" width="58.3333" height="35" fill="#0041AC"/>
<rect x="22.8521" width="58.3333" height="35" fill="url(#paint0_linear)"/>
<path d="M36.1948 15.6456C35.9203 15.8485 35.5801 16.0037 35.1742 16.1111C34.7803 16.2066 34.3625 16.2544 33.9208 16.2544C32.7748 16.2544 31.8855 15.9619 31.2528 15.377C30.6321 14.7921 30.3217 13.9326 30.3217 12.7986V8.84139H28.8356V6.6927H30.3217V4.34704H33.115V6.6927H35.5144V8.84139H33.115V12.7628C33.115 13.1686 33.2165 13.485 33.4194 13.7118C33.6343 13.9266 33.9327 14.0341 34.3147 14.0341C34.7564 14.0341 35.1324 13.9147 35.4428 13.6759L36.1948 15.6456ZM40.4308 7.74914C40.765 7.28359 41.2127 6.93144 41.7737 6.6927C42.3467 6.45395 43.0033 6.33458 43.7434 6.33458V8.91301C43.433 8.88914 43.2241 8.8772 43.1167 8.8772C42.3169 8.8772 41.6902 9.10401 41.2366 9.55762C40.7829 9.9993 40.5561 10.6678 40.5561 11.5631V16.1111H37.7628V6.47783H40.4308V7.74914ZM49.2374 6.33458C50.7295 6.33458 51.8755 6.6927 52.6753 7.40893C53.4751 8.11322 53.875 9.1816 53.875 10.6141V16.1111H51.2607V14.9114C50.7355 15.8067 49.7566 16.2544 48.3242 16.2544C47.5841 16.2544 46.9395 16.129 46.3903 15.8784C45.8532 15.6277 45.4413 15.2815 45.1548 14.8398C44.8684 14.3981 44.7251 13.8968 44.7251 13.3357C44.7251 12.4404 45.0593 11.7362 45.7278 11.2229C46.4082 10.7096 47.4527 10.4529 48.8613 10.4529H51.0817C51.0817 9.84411 50.8966 9.37856 50.5266 9.05626C50.1565 8.72202 49.6014 8.5549 48.8613 8.5549C48.348 8.5549 47.8407 8.63846 47.3393 8.80558C46.8499 8.96076 46.4321 9.17563 46.0859 9.45019L45.0832 7.49846C45.6085 7.1284 46.2352 6.84191 46.9633 6.63898C47.7034 6.43605 48.4614 6.33458 49.2374 6.33458ZM49.0225 14.3743C49.5 14.3743 49.9237 14.2668 50.2938 14.052C50.6638 13.8252 50.9265 13.4969 51.0817 13.0671V12.0823H49.1657C48.0198 12.0823 47.4468 12.4584 47.4468 13.2104C47.4468 13.5685 47.5841 13.855 47.8586 14.0699C48.1451 14.2728 48.5331 14.3743 49.0225 14.3743ZM61.1634 16.2544C60.1368 16.2544 59.2117 16.0455 58.388 15.6277C57.5763 15.1979 56.9377 14.607 56.4721 13.855C56.0185 13.103 55.7917 12.2495 55.7917 11.2945C55.7917 10.3395 56.0185 9.486 56.4721 8.73395C56.9377 7.98191 57.5763 7.39699 58.388 6.97919C59.2117 6.54945 60.1368 6.33458 61.1634 6.33458C62.1781 6.33458 63.0614 6.54945 63.8135 6.97919C64.5775 7.39699 65.1325 7.99982 65.4787 8.78767L63.3121 9.95155C62.8108 9.0682 62.0886 8.62652 61.1455 8.62652C60.4174 8.62652 59.8145 8.86526 59.337 9.34275C58.8596 9.82024 58.6208 10.4708 58.6208 11.2945C58.6208 12.1181 58.8596 12.7687 59.337 13.2462C59.8145 13.7237 60.4174 13.9624 61.1455 13.9624C62.1005 13.9624 62.8227 13.5208 63.3121 12.6374L65.4787 13.8192C65.1325 14.5832 64.5775 15.18 63.8135 15.6098C63.0614 16.0395 62.1781 16.2544 61.1634 16.2544ZM71.1533 12.333L69.8104 13.658V16.1111H67.0171V2.82505H69.8104V10.3455L73.8929 6.47783H77.2234L73.2125 10.5603L77.5815 16.1111H74.1973L71.1533 12.333ZM36.1956 28.6456C35.9211 28.8485 35.5808 29.0037 35.175 29.1111C34.7811 29.2066 34.3633 29.2544 33.9216 29.2544C32.7756 29.2544 31.8863 28.9619 31.2536 28.377C30.6329 27.7921 30.3225 26.9326 30.3225 25.7986V21.8414H28.8363V19.6927H30.3225V17.347H33.1158V19.6927H35.5152V21.8414H33.1158V25.7628C33.1158 26.1686 33.2173 26.485 33.4202 26.7118C33.6351 26.9266 33.9335 27.0341 34.3155 27.0341C34.7572 27.0341 35.1332 26.9147 35.4436 26.6759L36.1956 28.6456ZM40.1164 20.7491C40.4507 20.2836 40.8983 19.9314 41.4594 19.6927C42.0324 19.454 42.6889 19.3346 43.429 19.3346V21.913C43.1186 21.8891 42.9097 21.8772 42.8023 21.8772C42.0025 21.8772 41.3758 22.104 40.9222 22.5576C40.4686 22.9993 40.2418 23.6678 40.2418 24.5631V29.1111H37.4485V19.4778H40.1164V20.7491ZM54.5496 19.4778V29.1111H51.8996V27.9652C51.5295 28.383 51.0879 28.7053 50.5746 28.9321C50.0613 29.1469 49.5062 29.2544 48.9093 29.2544C47.644 29.2544 46.6413 28.8903 45.9011 28.1621C45.161 27.434 44.791 26.3536 44.791 24.9212V19.4778H47.5843V24.5093C47.5843 26.0612 48.2349 26.8371 49.536 26.8371C50.2045 26.8371 50.7417 26.6222 51.1475 26.1925C51.5534 25.7508 51.7563 25.1002 51.7563 24.2408V19.4778H54.5496ZM61.4778 29.2544C60.4512 29.2544 59.5261 29.0455 58.7024 28.6277C57.8907 28.1979 57.252 27.607 56.7865 26.855C56.3329 26.103 56.1061 25.2495 56.1061 24.2945C56.1061 23.3395 56.3329 22.486 56.7865 21.734C57.252 20.9819 57.8907 20.397 58.7024 19.9792C59.5261 19.5495 60.4512 19.3346 61.4778 19.3346C62.4925 19.3346 63.3758 19.5495 64.1278 19.9792C64.8918 20.397 65.4469 20.9998 65.7931 21.7877L63.6265 22.9515C63.1251 22.0682 62.4029 21.6265 61.4599 21.6265C60.7317 21.6265 60.1289 21.8653 59.6514 22.3428C59.1739 22.8202 58.9352 23.4708 58.9352 24.2945C58.9352 25.1181 59.1739 25.7687 59.6514 26.2462C60.1289 26.7237 60.7317 26.9624 61.4599 26.9624C62.4149 26.9624 63.1371 26.5208 63.6265 25.6374L65.7931 26.8192C65.4469 27.5832 64.8918 28.18 64.1278 28.6098C63.3758 29.0395 62.4925 29.2544 61.4778 29.2544ZM71.1525 25.333L69.8096 26.658V29.1111H67.0163V15.8251H69.8096V23.3455L73.8921 19.4778H77.2226L73.2117 23.5603L77.5807 29.1111H74.1965L71.1525 25.333Z" fill="white"/>
<path d="M8.39651 25.9822L8.39651 23.5112L10.5452 23.5112L10.5452 25.9106L17.8149 25.9106L17.8149 28.7039L10.5452 28.7039L10.5452 30.1901L8.39651 30.1901L8.39651 28.7039L7.96677 28.7039C6.86855 28.7039 5.99714 28.3816 5.35253 27.737C4.70792 27.0804 4.38562 26.1613 4.38562 24.9795C4.38562 24.5617 4.43337 24.1678 4.52886 23.7977C4.61242 23.4157 4.73776 23.0994 4.90489 22.8487L6.92824 23.5829C6.70143 23.9052 6.58803 24.2812 6.58803 24.7109C6.58803 25.5585 7.05358 25.9822 7.98468 25.9822L8.39651 25.9822ZM17.9582 17.6581C17.9582 18.6728 17.7493 19.586 17.3315 20.3977C16.9017 21.1975 16.3109 21.8242 15.5588 22.2778C14.8068 22.7314 13.9533 22.9583 12.9983 22.9583C12.0433 22.9583 11.1898 22.7314 10.4378 22.2778C9.68572 21.8242 9.1008 21.1975 8.683 20.3977C8.25326 19.586 8.03839 18.6728 8.03839 17.6581C8.03839 16.6435 8.25326 15.7363 8.683 14.9365C9.1008 14.1367 9.68572 13.51 10.4378 13.0564C11.1898 12.6028 12.0433 12.3759 12.9983 12.3759C13.9533 12.3759 14.8068 12.6028 15.5588 13.0564C16.3109 13.51 16.9017 14.1367 17.3315 14.9365C17.7493 15.7363 17.9582 16.6435 17.9582 17.6581ZM15.6662 17.6581C15.6662 16.9419 15.4275 16.357 14.95 15.9034C14.4606 15.4378 13.81 15.2051 12.9983 15.2051C12.1866 15.2051 11.542 15.4378 11.0645 15.9034C10.575 16.357 10.3303 16.9419 10.3303 17.6581C10.3303 18.3744 10.575 18.9653 11.0645 19.4308C11.542 19.8964 12.1866 20.1291 12.9983 20.1291C13.81 20.1291 14.4606 19.8964 14.95 19.4308C15.4275 18.9653 15.6662 18.3744 15.6662 17.6581ZM9.45295 7.84089C8.9874 7.50665 8.63525 7.05901 8.39651 6.49796C8.15776 5.92497 8.03839 5.26843 8.03839 4.52832L10.6168 4.52832C10.5929 4.83869 10.581 5.04759 10.581 5.15503C10.581 5.95482 10.8078 6.58152 11.2614 7.03513C11.7031 7.48874 12.3716 7.71555 13.2669 7.71555L17.8149 7.71555L17.8149 10.5088L8.18164 10.5088L8.18164 7.84089L9.45295 7.84089Z" fill="white"/>
<defs>
<linearGradient id="paint0_linear" x1="78.7749" y1="-4.83668" x2="71.4063" y2="44.4017" gradientUnits="userSpaceOnUse">
<stop stop-color="#3798F1"/>
<stop offset="1" stop-color="#406FF5"/>
</linearGradient>
</defs>
</svg>
